{
  "testId" : "1-addzadatak.gspec",
  "name" : "addZadatak.gspec",
  "report" : {
    "nodes" : [ {
      "name" : "Simple check",
      "status" : "info",
      "nodes" : [ {
        "name" : "check  addZadatak.gspec --url http://localhost/addZadatak.html --size 1600x900 --htmlreport testovi/izvjestaj_addZadatak",
        "status" : "info",
        "nodes" : [ {
          "name" : "Check layout: addZadatak.gspec included tags: ",
          "status" : "info",
          "time" : 1541099771920,
          "sections" : [ {
            "name" : "body section",
            "place" : {
              "filePath" : "addZadatak.gspec",
              "lineNumber" : 15
            },
            "objects" : [ {
              "name" : "header",
              "specs" : [ {
                "status" : "info",
                "place" : {
                  "filePath" : "addZadatak.gspec",
                  "lineNumber" : 17
                },
                "name" : "above glavniSadrzaj",
                "highlight" : [ "header", "glavniSadrzaj" ]
              } ]
            }, {
              "name" : "glavniSadrzaj",
              "specs" : [ {
                "status" : "info",
                "place" : {
                  "filePath" : "addZadatak.gspec",
                  "lineNumber" : 19
                },
                "name" : "below header",
                "highlight" : [ "glavniSadrzaj", "header" ]
              }, {
                "status" : "info",
                "place" : {
                  "filePath" : "addZadatak.gspec",
                  "lineNumber" : 20
                },
                "name" : "above footer",
                "highlight" : [ "glavniSadrzaj", "footer" ]
              }, {
                "status" : "info",
                "place" : {
                  "filePath" : "addZadatak.gspec",
                  "lineNumber" : 21
                },
                "name" : "width > 50 % of screen/width",
                "highlight" : [ "glavniSadrzaj" ]
              } ]
            }, {
              "name" : "footer",
              "specs" : [ {
                "status" : "info",
                "place" : {
                  "filePath" : "addZadatak.gspec",
                  "lineNumber" : 23
                },
                "name" : "below glavniSadrzaj",
                "highlight" : [ "footer", "glavniSadrzaj" ]
              }, {
                "status" : "info",
                "place" : {
                  "filePath" : "addZadatak.gspec",
                  "lineNumber" : 24
                },
                "name" : "below header",
                "highlight" : [ "footer", "header" ]
              } ]
            } ]
          }, {
            "name" : "header section",
            "place" : {
              "filePath" : "addZadatak.gspec",
              "lineNumber" : 26
            },
            "objects" : [ {
              "name" : "meni",
              "specs" : [ {
                "status" : "info",
                "place" : {
                  "filePath" : "addZadatak.gspec",
                  "lineNumber" : 28
                },
                "name" : "inside header",
                "highlight" : [ "meni", "header" ]
              }, {
                "status" : "info",
                "place" : {
                  "filePath" : "addZadatak.gspec",
                  "lineNumber" : 29
                },
                "name" : "below logo",
                "highlight" : [ "meni", "logo" ]
              } ]
            }, {
              "name" : "logo",
              "specs" : [ {
                "status" : "info",
                "place" : {
                  "filePath" : "addZadatak.gspec",
                  "lineNumber" : 31
                },
                "name" : "inside header",
                "highlight" : [ "logo", "header" ]
              }, {
                "status" : "info",
                "place" : {
                  "filePath" : "addZadatak.gspec",
                  "lineNumber" : 32
                },
                "name" : "above meni",
                "highlight" : [ "logo", "meni" ]
              }, {
                "status" : "info",
                "place" : {
                  "filePath" : "addZadatak.gspec",
                  "lineNumber" : 33
                },
                "name" : "left-of naslov",
                "highlight" : [ "logo", "naslov" ]
              } ]
            } ]
          }, {
            "name" : "glavniSadrzaj section",
            "place" : {
              "filePath" : "addZadatak.gspec",
              "lineNumber" : 35
            },
            "objects" : [ {
              "name" : "forma",
              "specs" : [ {
                "status" : "info",
                "place" : {
                  "filePath" : "addZadatak.gspec",
                  "lineNumber" : 37
                },
                "name" : "inside glavniSadrzaj",
                "highlight" : [ "forma", "glavniSadrzaj" ]
              } ]
            } ]
          }, {
            "name" : "forma section",
            "place" : {
              "filePath" : "addZadatak.gspec",
              "lineNumber" : 39
            },
            "objects" : [ {
              "name" : "naslovForme",
              "specs" : [ {
                "status" : "info",
                "place" : {
                  "filePath" : "addZadatak.gspec",
                  "lineNumber" : 41
                },
                "name" : "inside forma",
                "highlight" : [ "naslovForme", "forma" ]
              }, {
                "status" : "info",
                "place" : {
                  "filePath" : "addZadatak.gspec",
                  "lineNumber" : 42
                },
                "name" : "above paragrafi",
                "highlight" : [ "naslovForme", "paragrafi" ]
              }, {
                "status" : "info",
                "place" : {
                  "filePath" : "addZadatak.gspec",
                  "lineNumber" : 43
                },
                "name" : "above inputi",
                "highlight" : [ "naslovForme", "inputi" ]
              } ]
            } ]
          }, {
            "name" : "footer",
            "place" : {
              "filePath" : "addZadatak.gspec",
              "lineNumber" : 45
            },
            "objects" : [ {
              "name" : "paragraf",
              "specs" : [ {
                "status" : "info",
                "place" : {
                  "filePath" : "addZadatak.gspec",
                  "lineNumber" : 47
                },
                "name" : "inside footer",
                "highlight" : [ "paragraf", "footer" ]
              } ]
            } ]
          } ],
          "objects" : {
            "meni" : {
              "area" : [ 12, 80, 1501, 39 ]
            },
            "inputi" : {
              "area" : [ 471, 344, 586, 26 ]
            },
            "glavniSadrzaj" : {
              "area" : [ 114, 147, 1297, 512 ]
            },
            "naslov" : {
              "area" : [ 1223, 22, 289, 37 ]
            },
            "footer" : {
              "area" : [ 0, 659, 1525, 80 ]
            },
            "paragrafi" : {
              "area" : [ 471, 310, 582, 18 ]
            },
            "header" : {
              "area" : [ 0, 0, 1525, 147 ]
            },
            "logo" : {
              "area" : [ 12, 12, 65, 65 ]
            },
            "forma" : {
              "area" : [ 439, 219, 646, 381 ]
            },
            "naslovForme" : {
              "area" : [ 471, 270, 582, 22 ]
            },
            "paragraf" : {
              "area" : [ 1293, 681, 230, 24 ]
            }
          },
          "screenshot" : "layout-1-screenshot.png",
          "type" : "layout"
        } ],
        "time" : 1541099769435,
        "type" : "node"
      } ],
      "time" : 1541099767350,
      "type" : "node"
    } ]
  }
}