{
  "testId" : "1-addstudent.gspec",
  "name" : "addStudent.gspec",
  "report" : {
    "nodes" : [ {
      "name" : "Simple check",
      "status" : "info",
      "nodes" : [ {
        "name" : "check  addStudent.gspec --url http://localhost/addStudent.html --size 1600x900 --htmlreport testovi/izvjestaj_addStudent",
        "status" : "info",
        "nodes" : [ {
          "name" : "Check layout: addStudent.gspec included tags: ",
          "status" : "info",
          "time" : 1541101814611,
          "sections" : [ {
            "name" : "body section",
            "place" : {
              "filePath" : "addStudent.gspec",
              "lineNumber" : 20
            },
            "objects" : [ {
              "name" : "header",
              "specs" : [ {
                "status" : "info",
                "place" : {
                  "filePath" : "addStudent.gspec",
                  "lineNumber" : 22
                },
                "name" : "above glavniSadrzaj",
                "highlight" : [ "header", "glavniSadrzaj" ]
              } ]
            }, {
              "name" : "glavniSadrzaj",
              "specs" : [ {
                "status" : "info",
                "place" : {
                  "filePath" : "addStudent.gspec",
                  "lineNumber" : 24
                },
                "name" : "below header",
                "highlight" : [ "glavniSadrzaj", "header" ]
              }, {
                "status" : "info",
                "place" : {
                  "filePath" : "addStudent.gspec",
                  "lineNumber" : 25
                },
                "name" : "above footer",
                "highlight" : [ "glavniSadrzaj", "footer" ]
              }, {
                "status" : "info",
                "place" : {
                  "filePath" : "addStudent.gspec",
                  "lineNumber" : 26
                },
                "name" : "width 85 % of screen/width",
                "highlight" : [ "glavniSadrzaj" ]
              }, {
                "status" : "info",
                "place" : {
                  "filePath" : "addStudent.gspec",
                  "lineNumber" : 27
                },
                "name" : "height > 50% of screen/height",
                "highlight" : [ "glavniSadrzaj" ]
              } ]
            }, {
              "name" : "footer",
              "specs" : [ {
                "status" : "info",
                "place" : {
                  "filePath" : "addStudent.gspec",
                  "lineNumber" : 29
                },
                "name" : "below glavniSadrzaj",
                "highlight" : [ "footer", "glavniSadrzaj" ]
              }, {
                "status" : "info",
                "place" : {
                  "filePath" : "addStudent.gspec",
                  "lineNumber" : 30
                },
                "name" : "below header",
                "highlight" : [ "footer", "header" ]
              } ]
            } ]
          }, {
            "name" : "header section",
            "place" : {
              "filePath" : "addStudent.gspec",
              "lineNumber" : 32
            },
            "objects" : [ {
              "name" : "meni",
              "specs" : [ {
                "status" : "info",
                "place" : {
                  "filePath" : "addStudent.gspec",
                  "lineNumber" : 34
                },
                "name" : "inside header",
                "highlight" : [ "meni", "header" ]
              }, {
                "status" : "info",
                "place" : {
                  "filePath" : "addStudent.gspec",
                  "lineNumber" : 35
                },
                "name" : "below logo",
                "highlight" : [ "meni", "logo" ]
              } ]
            }, {
              "name" : "logo",
              "specs" : [ {
                "status" : "info",
                "place" : {
                  "filePath" : "addStudent.gspec",
                  "lineNumber" : 37
                },
                "name" : "inside header",
                "highlight" : [ "logo", "header" ]
              }, {
                "status" : "info",
                "place" : {
                  "filePath" : "addStudent.gspec",
                  "lineNumber" : 38
                },
                "name" : "above meni",
                "highlight" : [ "logo", "meni" ]
              }, {
                "status" : "info",
                "place" : {
                  "filePath" : "addStudent.gspec",
                  "lineNumber" : 39
                },
                "name" : "left-of naslov",
                "highlight" : [ "logo", "naslov" ]
              } ]
            } ]
          }, {
            "name" : "glavniSadrzaj section",
            "place" : {
              "filePath" : "addStudent.gspec",
              "lineNumber" : 41
            },
            "objects" : [ {
              "name" : "formaPojedinacni",
              "specs" : [ {
                "status" : "info",
                "place" : {
                  "filePath" : "addStudent.gspec",
                  "lineNumber" : 43
                },
                "name" : "inside glavniSadrzaj",
                "highlight" : [ "formaPojedinacni", "glavniSadrzaj" ]
              }, {
                "status" : "info",
                "place" : {
                  "filePath" : "addStudent.gspec",
                  "lineNumber" : 44
                },
                "name" : "width > 50 % of glavniSadrzaj/width",
                "highlight" : [ "formaPojedinacni" ]
              } ]
            }, {
              "name" : "formaMasovni",
              "specs" : [ {
                "status" : "info",
                "place" : {
                  "filePath" : "addStudent.gspec",
                  "lineNumber" : 46
                },
                "name" : "inside glavniSadrzaj",
                "highlight" : [ "formaMasovni", "glavniSadrzaj" ]
              }, {
                "status" : "info",
                "place" : {
                  "filePath" : "addStudent.gspec",
                  "lineNumber" : 47
                },
                "name" : "width > 50 % of glavniSadrzaj/width",
                "highlight" : [ "formaMasovni" ]
              } ]
            } ]
          }, {
            "name" : "formaPojedinacni section",
            "place" : {
              "filePath" : "addStudent.gspec",
              "lineNumber" : 49
            },
            "objects" : [ {
              "name" : "selektP",
              "specs" : [ {
                "status" : "info",
                "place" : {
                  "filePath" : "addStudent.gspec",
                  "lineNumber" : 51
                },
                "name" : "inside formaPojedinacni",
                "highlight" : [ "selektP", "formaPojedinacni" ]
              } ]
            }, {
              "name" : "paragrafiP",
              "specs" : [ {
                "status" : "info",
                "place" : {
                  "filePath" : "addStudent.gspec",
                  "lineNumber" : 53
                },
                "name" : "inside formaPojedinacni",
                "highlight" : [ "paragrafiP", "formaPojedinacni" ]
              } ]
            }, {
              "name" : "inputiP",
              "specs" : [ {
                "status" : "info",
                "place" : {
                  "filePath" : "addStudent.gspec",
                  "lineNumber" : 55
                },
                "name" : "inside formaPojedinacni",
                "highlight" : [ "inputiP", "formaPojedinacni" ]
              }, {
                "status" : "info",
                "place" : {
                  "filePath" : "addStudent.gspec",
                  "lineNumber" : 56
                },
                "name" : "width > 30 % of formaPojedinacni/width",
                "highlight" : [ "inputiP" ]
              } ]
            } ]
          }, {
            "name" : "formaMasovni section",
            "place" : {
              "filePath" : "addStudent.gspec",
              "lineNumber" : 58
            },
            "objects" : [ {
              "name" : "selektM",
              "specs" : [ {
                "status" : "info",
                "place" : {
                  "filePath" : "addStudent.gspec",
                  "lineNumber" : 60
                },
                "name" : "inside formaMasovni",
                "highlight" : [ "selektM", "formaMasovni" ]
              } ]
            }, {
              "name" : "inputMfile",
              "specs" : [ {
                "status" : "info",
                "place" : {
                  "filePath" : "addStudent.gspec",
                  "lineNumber" : 62
                },
                "name" : "inside formaMasovni",
                "highlight" : [ "inputMfile", "formaMasovni" ]
              }, {
                "status" : "info",
                "place" : {
                  "filePath" : "addStudent.gspec",
                  "lineNumber" : 63
                },
                "name" : "below selektM",
                "highlight" : [ "inputMfile", "selektM" ]
              } ]
            } ]
          }, {
            "name" : "footer",
            "place" : {
              "filePath" : "addStudent.gspec",
              "lineNumber" : 65
            },
            "objects" : [ {
              "name" : "paragraf",
              "specs" : [ {
                "status" : "info",
                "place" : {
                  "filePath" : "addStudent.gspec",
                  "lineNumber" : 67
                },
                "name" : "inside footer",
                "highlight" : [ "paragraf", "footer" ]
              } ]
            } ]
          } ],
          "objects" : {
            "meni" : {
              "area" : [ 12, 80, 1486, 39 ]
            },
            "glavniSadrzaj" : {
              "area" : [ 111, 147, 1288, 954 ]
            },
            "footer" : {
              "area" : [ 0, 1101, 1510, 80 ]
            },
            "formaMasovni" : {
              "area" : [ 369, 749, 770, 300 ]
            },
            "naslov" : {
              "area" : [ 1174, 22, 323, 37 ]
            },
            "inputiP" : {
              "area" : [ 421, 361, 337, 36 ]
            },
            "header" : {
              "area" : [ 0, 0, 1510, 147 ]
            },
            "logo" : {
              "area" : [ 12, 12, 65, 65 ]
            },
            "selektP" : {
              "area" : [ 421, 288, 100, 25 ]
            },
            "formaPojedinacni" : {
              "area" : [ 369, 199, 770, 500 ]
            },
            "inputMfile" : {
              "area" : [ 421, 911, 253, 21 ]
            },
            "paragrafiP" : {
              "area" : [ 421, 256, 666, 16 ]
            },
            "selektM" : {
              "area" : [ 421, 838, 100, 25 ]
            },
            "paragraf" : {
              "area" : [ 1278, 1123, 230, 24 ]
            }
          },
          "screenshot" : "layout-1-screenshot.png",
          "type" : "layout"
        } ],
        "time" : 1541101812141,
        "type" : "node"
      } ],
      "time" : 1541101810241,
      "type" : "node"
    } ]
  }
}