{
  "tests" : [ {
    "name" : "studenti.gspec",
    "startedAt" : 1541097481927,
    "endedAt" : 1541097486008,
    "failed" : false,
    "statistic" : {
      "passed" : 16,
      "errors" : 0,
      "warnings" : 0,
      "total" : 16
    },
    "testId" : "1-studenti.gspec",
    "duration" : 4081,
    "failed" : false
  } ]
}